2.183222834921865474e-01 6.038808874720465875e-03 2.695989702264304632e-03 4.784089493685931059e-06 -3.351185173119376854e-10 -2.440964573087451314e-07 -4.276627376899224199e-10
2.142681361438316667e-01 4.134445890271699724e-03 2.744254572867623788e-03 3.674955462575993392e-05 4.187206627000972875e-09 2.246058914527871159e-06 -1.089350299729224928e-08
2.185333766970174729e-01 5.718146431144367943e-03 2.821670259624822590e-03 7.194873202063427689e-05 1.556871937128848669e-08 4.958722838387468128e-06 -2.843500636081700850e-08
2.228204434999158656e-01 7.540287638376833718e-03 2.930516412082391844e-03 1.036615423872666602e-04 4.105042802475315262e-08 8.809271623428285017e-06 -3.973934658887880548e-08
1.846098012364042196e-01 2.926443812977115241e-03 9.610709115829565389e-04 3.075963055606219308e-05 -4.305440543773071350e-09 -9.012848356518528365e-07 -3.071414690684426042e-09
2.170456747276675868e-01 7.614233344730480905e-03 2.517310461340430301e-03 1.003708993817010070e-04 -4.552170183718881263e-08 -5.434755460363330380e-06 -2.175314247648750067e-08
2.190891548602233174e-01 7.649799683747040419e-03 2.873513842904117013e-03 1.147344482961237637e-04 -6.524145270088833777e-08 -8.286964490943787999e-06 -9.143489859868823245e-09
2.185813352286901656e-01 7.670987832648299906e-03 2.772834186553601622e-03 1.115100846255510952e-04 -6.034973418810467864e-08 -7.521753336735950349e-06 -1.423530533672985441e-08
2.250636034573981203e-01 8.508846214978917077e-03 2.916140623140054105e-03 9.859885391410303564e-05 4.916955292359910651e-08 8.920846820032660960e-06 -1.943262708729979441e-08
2.499321618787669341e-01 2.028220526220159137e-02 3.943831670911271924e-03 3.212870889778169379e-04 -1.021384849328529688e-07 -3.151508848440421701e-05 3.469363815422930546e-07
2.612790528117759359e-01 2.595988490198163426e-02 3.939450463686445733e-03 2.753862112475077904e-04 -2.712712596765022731e-07 -4.435161473826094265e-05 9.319779392118924117e-08
2.122582970658355717e-01 4.116811176607131431e-03 2.553954804198423339e-03 2.659007791568076482e-06 1.902961167022381202e-10 1.778082314051461196e-08 1.086363046597695428e-10
2.231697019506515001e-01 7.817017092207976386e-03 2.813175611237810157e-03 5.285550651863901776e-05 2.034642737546767883e-08 3.504690225845185244e-06 1.193279180612508535e-09
2.403524352981996071e-01 1.545186689476408387e-02 3.711092257422931966e-03 2.298404088904119891e-04 -1.695822197871331758e-07 -2.782328088290495218e-05 1.276746027709084773e-07
2.576024948346907761e-01 2.380780772778968643e-02 4.030870903467128133e-03 2.980584033995587368e-04 -2.328766716018286078e-07 -4.251916838990601338e-05 2.291342595681326111e-07
2.457598979318507126e-01 1.811636771060138457e-02 3.782858563788061863e-03 2.551196145566512769e-04 -1.787771476168903009e-07 -3.210109558191640830e-05 1.756474816810319420e-07
2.235105923281024420e-01 7.966627322923200763e-03 2.929290078862225970e-03 1.181345815805666686e-04 3.972505313117958926e-08 9.273807559877988657e-06 -5.702038225000564531e-08
2.529790954868657016e-01 2.161583682974711762e-02 4.167102613657369496e-03 3.829882078172380409e-04 -1.849168275042021275e-08 -2.875610523983876919e-05 4.834791845951135864e-07
2.429945277613776433e-01 1.713232562497269545e-02 3.901444761536830997e-03 3.366615236257109681e-04 3.438495553510662771e-09 -2.166828292835483696e-05 3.858208659781948983e-07
2.160891836846935421e-01 5.186371405179664509e-03 2.769831626694065508e-03 5.277871875224699849e-05 1.209212908569675165e-08 3.752736834248359036e-06 -1.615553044754452354e-08
2.509901510286044468e-01 2.042065595103911835e-02 3.975264734564608847e-03 2.665712700610381003e-04 -2.227347769151826742e-07 -3.694713812248480764e-05 1.602845729036692410e-07
2.135142466102006864e-01 4.311780192054079537e-03 2.609582977428079494e-03 2.038365898308994658e-05 3.647770549374108287e-09 1.277710957846712665e-06 -2.965645980342519228e-09
2.233553027527985235e-01 7.940265156572484315e-03 2.880525758154698843e-03 8.804907859804957430e-05 4.052019142024658189e-08 7.718375995326224505e-06 -1.801105013454954685e-08
2.240870443780580423e-01 8.136558040870506964e-03 3.037777927671574292e-03 1.494621897533982425e-04 -8.987351366378088453e-08 -9.267013969211464867e-06 -4.544633064918980881e-08
3.517358596071381571e-01 9.656629026385904480e-02 1.984906806272606713e-07 2.072411828188035769e-08 -1.295707603721486764e-15 -6.435147975971276125e-09 2.964189184715720760e-16
5.584854969527495161e-01 2.846187868854850311e-01 1.937257673829912665e-07 2.192838480521654484e-08 -9.886773152403061759e-16 -1.018306156792859701e-08 -1.032099809583278687e-15
3.155857514319155288e-01 7.216988538045210344e-02 2.008125129303604119e-07 1.887368015997805862e-08 -1.156630937870073831e-15 -5.015256289572562405e-09 1.108517375191060134e-16
4.490235841122047211e-01 1.743767286403306027e-01 8.391371955473022634e-07 9.092626691815675715e-08 -2.021373249539704705e-14 -3.145470795537932903e-08 -1.490699932682642714e-14
4.445691336172017949e-01 1.704014885099371657e-01 8.475517732851228460e-07 9.162059987667076065e-08 -2.061249995784467224e-14 -3.137317262154773518e-08 -1.506558274176636296e-14
4.445691336172011288e-01 1.704014885099366106e-01 8.475517732889589523e-07 9.162059987666640637e-08 -2.061249995814379567e-14 -3.137317262183254339e-08 -1.506558274145193563e-14
3.412473546166612248e-01 8.939016365436033840e-02 1.784935813084423879e-07 5.257543512407921176e-08 4.436172883016853317e-15 1.162272794456548563e-08 2.502088193605698928e-15
3.448007383946751769e-01 9.178316573054245975e-02 1.909205523705686647e-07 2.497112682764184469e-08 -4.163245966075122447e-16 -3.984925273177426173e-09 1.673165709034445210e-15
3.342063215939692911e-01 8.462895776384973812e-02 8.471292636232699401e-08 1.435869000987920021e-08 2.129231353689020206e-16 3.093953445740135977e-11 -4.532598123496584227e-16
3.582612315308624784e-01 1.012542444892628457e-01 8.870206078232416342e-07 9.394896299881036986e-08 -2.285283555981075465e-14 -2.783922072368938192e-08 1.460457608335554161e-14
3.388952723143385803e-01 8.782514500062033047e-02 1.062409219902396789e-06 1.508636986981326117e-07 2.840347590149461665e-15 -1.216810615966245730e-08 6.033124368714341662e-14
4.079262114538513839e-01 1.393028854773973035e-01 4.431643295575170868e-05 5.591094456865212747e-06 -3.856658655720423704e-11 -1.439209684427100587e-06 7.910892689536450214e-11
2.784166817899193513e-01 3.154886670256322467e-02 6.079634684143074216e-03 6.057771396506171852e-04 -3.037280665283063138e-07 -8.372024752866623608e-06 1.122162864249881493e-06
4.520988418937918474e-01 1.575349894549774588e-01 1.559767595531277515e-02 6.733049286366411985e-03 6.690513463513046125e-05 2.455250891347081181e-03 1.687219867224128692e-05
3.348901247662969261e-01 6.724880154896105411e-02 8.554143955014213707e-03 1.979228423287483600e-03 6.437788406574926246e-06 3.641420037275274260e-04 4.987775382324081346e-06
3.342246456747281491e-01 6.696818516784587560e-02 8.535903475587088007e-03 1.988258788520450016e-03 6.515254972874413964e-06 3.673913953497286557e-04 4.964178160370366237e-06
3.352498848382230445e-01 6.739838744219599220e-02 8.568215100316632291e-03 1.977107103884511753e-03 6.415893698365863667e-06 3.631535854225141332e-04 5.005502350209167193e-06
3.394972983727833071e-01 7.019723482427558947e-02 8.727699070770188541e-03 2.060092301176414016e-03 6.972034413979649206e-06 3.909413632794740581e-04 5.262787437104438201e-06
2.560293188097317874e-01 1.985565027449638295e-02 5.293002901350307536e-03 4.150030794188572843e-04 -3.901209732565812462e-07 -1.728763456144261600e-05 4.755237417949216577e-07
4.305866812964604384e-01 1.391797462156759702e-01 1.378455123195699433e-02 5.604308701414675159e-03 4.741053208282613795e-05 1.904838254322320859e-03 1.336492570407614720e-05
2.835574219756437642e-01 3.425848896328335252e-02 6.362047383296891637e-03 6.710143500776587526e-04 -2.128138209726043090e-07 -8.659830225079540977e-07 1.369993655499190580e-06
4.589625591671397942e-01 1.640400199064465103e-01 1.555097322744039209e-02 6.481394576942483936e-03 6.262776586904730770e-05 2.347812410284554063e-03 1.766015146902033382e-05
2.587827582300648577e-01 2.127967078933223899e-02 5.470448761586799852e-03 4.339867647695099017e-04 -4.701242933059619447e-07 -2.527270687633008476e-05 4.755336993750302911e-07
4.331124113999790248e-01 1.409070721907479118e-01 1.327660791945674268e-02 4.688603933475986134e-03 3.437111541778732708e-05 1.476649533428324749e-03 1.367630274207070166e-05
4.373974770388108224e-01 1.448014657694482732e-01 1.386135684248435487e-02 5.378389082982311040e-03 4.421180484450246687e-05 1.808031462746890377e-03 1.420846669983440115e-05
4.221733145684598010e-01 1.320136244665300329e-01 1.310748002629852707e-02 4.988827441933917778e-03 3.833762660091112059e-05 1.610594202624006680e-03 1.255796989224156652e-05
2.682680109181596051e-01 2.598654100105136228e-02 5.796999052463482072e-03 5.362938102422322179e-04 -3.365409970256990175e-07 -9.189757472074194558e-06 8.836812954688440868e-07
2.798783737122353399e-01 3.198670700590036664e-02 6.290551438577607520e-03 5.793289174273038786e-04 -5.977581299182875454e-07 -3.521968228496693702e-05 9.304793930001229518e-07
3.370991484731403198e-01 6.698944438318372996e-02 7.604436508815576486e-03 1.408065537190243688e-03 2.249390386883380055e-06 1.490648849114120449e-04 4.021136840113481390e-06
2.346538222005402630e-01 1.920325279716003641e-02 1.527881782984882256e-03 1.313690909047719865e-04 -2.442198541555284565e-08 -1.222871187260464874e-05 5.354902853824017864e-08
2.378020444150994450e-01 2.058613968353862830e-02 1.626976655202941194e-03 1.523306322325375904e-04 -1.801233418073909952e-08 -1.184651235260618412e-05 7.366513205609337448e-08
2.867945914723311618e-01 4.670403031209870853e-02 2.067223959679636951e-03 4.259187129533369490e-04 2.919096794329548806e-07 3.294068694322969601e-05 2.729685433681571503e-07
2.829262298794118502e-01 4.479413031869070028e-02 1.863107975843366531e-03 3.736911193730765249e-04 2.234899354700385148e-07 2.665683291605395162e-05 2.174324989119872099e-07
2.853375422584863430e-01 4.607545473650329071e-02 2.002700716484396171e-03 3.845788394873785954e-04 2.311084158014234297e-07 2.429290381016894920e-05 2.459707628406008798e-07
2.853375422584865095e-01 4.607545473650331846e-02 2.002700716484300328e-03 3.845788394874102541e-04 2.311084158015010126e-07 2.429290381017719253e-05 2.459707628405742512e-07
2.847054889789718546e-01 4.584914669379901164e-02 1.978946506617693633e-03 3.790117880829835359e-04 2.251868364570585588e-07 2.399126270142971958e-05 2.388193222275317300e-07
2.628168817660603840e-01 3.260533548992804176e-02 1.857782352016062229e-03 1.883590129863975241e-04 -3.302102421560430511e-08 -2.026915678806049276e-05 1.064181442334627149e-07
2.494094880515584367e-01 2.594694534652799978e-02 1.727012365543803335e-03 1.710572357581435971e-04 -2.254633648240861983e-08 -1.541567447764223236e-05 9.019846442424030341e-08
3.703996183103837048e-01 1.003607781456530151e-01 3.818628991873252061e-03 1.383636874054581471e-03 2.978332696262872388e-06 3.012853217366501116e-04 1.115670096976930229e-06
2.480932766734078587e-01 2.521708226339514775e-02 1.677272541191311868e-03 1.387707628154466065e-04 -5.048411580092348873e-08 -1.963812010114310879e-05 4.397293951343645551e-08
3.547128028948580702e-01 8.907327013392253579e-02 3.644127186194209833e-03 1.273585536969012045e-03 2.552171458658592162e-06 2.569013627459259337e-04 1.007169737566272108e-06
3.661899440951325024e-01 9.733069273703068292e-02 4.136652732893627074e-03 1.701564449596692152e-03 4.346385473233785898e-06 4.081214185469829924e-04 1.220028067193905776e-06
3.604770681424573908e-01 9.351295878630094816e-02 4.146098130539991114e-03 1.704131305104289061e-03 4.363220049815094077e-06 4.019565872957147983e-04 1.216946493053586413e-06
3.578109023076493922e-01 9.149848292681317385e-02 3.703678227634445326e-03 1.385884525800169017e-03 2.969069095626665781e-06 3.006671054676404936e-04 1.021376115900723554e-06
3.469885324357035450e-01 8.371085724909135828e-02 3.527884682075362564e-03 1.203369698338703844e-03 2.297732544197990496e-06 2.341953292286127455e-04 9.317242033042018585e-07
3.518397721005870893e-01 8.751765233574239355e-02 3.874455075338864227e-03 1.554371437248654305e-03 3.666512171817086694e-06 3.531653854819456913e-04 1.052184616212744135e-06
2.303785840305834776e-01 1.741824180115663506e-02 1.505783586863020974e-03 1.361146997131282093e-04 -1.280526606339914880e-08 -9.391341359944382422e-06 6.027726851842185380e-08
2.149084496615558393e-01 1.595394769118902226e-02 1.522063488719076207e-03 3.433242404131057047e-04 2.449662049252850242e-07 4.074654200154631810e-05 3.983289428715435604e-08
2.167219877896133240e-01 1.676593651687917005e-02 1.466434526415144298e-03 2.926862455801353385e-04 1.822246360761313034e-07 3.110204375552846483e-05 5.968374260228654653e-08
1.872325160162137681e-01 4.862088937780662673e-03 1.062038881837821039e-03 4.465564107605281014e-05 3.797596205768061752e-10 -1.091983457694552096e-06 -9.717472390225610662e-09
2.139019020051563524e-01 1.559609341348564514e-02 1.446136253282215723e-03 2.917660732718515290e-04 1.832356398277967773e-07 3.190429415770075239e-05 4.840267867458903990e-08
2.108150496045926858e-01 1.423462546608489886e-02 1.477720695234209470e-03 3.031419790812726433e-04 2.001567296575301370e-07 3.434270188210041799e-05 3.320419708586090819e-08
1.782205955765695793e-01 3.813703233212561994e-03 4.378347513370533465e-04 1.737211292514919412e-05 1.305057689825373991e-09 9.905035694643216620e-07 7.695947850729156008e-10
1.892254601363222988e-01 6.348223159826880957e-03 1.020718809884152466e-03 1.018185954171979882e-04 3.274059226406053356e-08 8.106960365738319401e-06 2.340843338111463885e-09
1.903080771260101112e-01 6.662022976759088624e-03 9.764323609070433511e-04 1.021992228647591741e-04 3.227042942636579143e-08 8.337145897669574594e-06 9.490422145880738832e-10
1.892254601363226318e-01 6.348223159826922590e-03 1.020718809884144226e-03 1.018185954172216238e-04 3.274059226407155822e-08 8.106960365740201508e-06 2.340843338115576627e-09
1.787141939229583698e-01 1.785295742323635831e-03 9.735645389035043999e-04 3.085353141998479695e-05 3.668967785078796765e-09 5.226306884608876959e-07 -3.890111805543897306e-09
2.198220705746238290e-01 1.809722499134055335e-02 1.580155671735981914e-03 3.787954452215251417e-04 2.887201141059822948e-07 4.752414812596904504e-05 5.025000203002285513e-08
2.121222777259901271e-01 1.488369666646405416e-02 1.461845543494608504e-03 2.950056209086020795e-04 1.890921950041570816e-07 3.271022333310976749e-05 4.213471301996347231e-08
1.861308689984622067e-01 4.651439147866028717e-03 1.039239190104233315e-03 5.329033383102703723e-05 6.483685311675767798e-09 5.885939549271549070e-07 -1.073486093176197711e-08
1.919027433410543937e-01 6.666052850842795960e-03 1.071687012601166842e-03 6.346218801189616862e-05 3.668293646000608499e-09 -8.642013408574452186e-07 -1.613867726426929932e-08
2.196920787195242031e-01 1.797506281712217199e-02 1.621411453615165298e-03 3.882161918775373891e-04 3.033210243001236267e-07 4.870071693836680561e-05 5.350830657679070190e-08
1.830557658960849099e-01 3.418107114318147052e-03 1.013546491762526902e-03 3.978159279163873759e-05 2.911616303261832457e-09 -6.048012523960804458e-08 -7.438595367184519755e-09
2.232463884634385276e-01 1.971904980510754898e-02 1.642903102755052542e-03 4.286670009761055157e-04 3.562498847465419972e-07 5.733966290200705787e-05 4.997291346616939566e-08
2.184565551269599948e-01 1.763509371380990801e-02 1.526485041375709450e-03 3.600200064716235424e-04 2.627329556873020116e-07 4.441349671480723489e-05 4.693564247662155092e-08
1.820668756553763812e-01 3.025233771902962124e-03 1.014470814199717368e-03 4.620876571159288862e-05 7.019199848313121345e-09 1.090718809909349515e-06 -7.129228394674783793e-09
1.828187189604458807e-01 3.364426907585370795e-03 9.841332646080569197e-04 3.280707120801818014e-05 -4.022484097005718693e-11 -7.515494513187803701e-07 -5.894785908047554572e-09
1.822349351661110561e-01 3.019571191329445750e-03 9.976321538729189965e-04 3.085796491330684117e-05 1.439018701499623091e-10 -6.214410016909271734e-07 -5.412310326757727366e-09
2.210841590438404614e-01 1.871974047361608939e-02 1.617769592070642751e-03 4.188181323037427233e-04 3.426948047119985474e-07 5.555802915810528444e-05 3.753137392019888246e-08
1.834456070992144805e-01 3.565070204212881459e-03 1.016211764402838707e-03 4.785553020011290077e-05 5.930060124963821324e-09 6.847516362937142787e-07 -8.729694473411615581e-09
2.168161941247809532e-01 1.687488061639571407e-02 1.518274255545120450e-03 3.445901337539568365e-04 2.447865484124750104e-07 4.115621808404937851e-05 4.694092344990920817e-08
1.827523856434841720e-01 3.228262516545359409e-03 9.981574542250971557e-04 3.392934962275940012e-05 3.870631454273024327e-10 -6.438108418524090911e-07 -6.231990571781230837e-09
1.819230530917602673e-01 3.123326513004585046e-03 9.807777268684629395e-04 4.355243775212998112e-05 5.419832302239762939e-09 7.252483781547112080e-07 -7.186679228396373820e-09
2.128234651186513560e-01 1.518685111669360391e-02 1.447501500347381058e-03 3.026061627852610425e-04 1.960563219849854366e-07 3.405800678588725283e-05 4.088872418187096491e-08
1.819018248304061502e-01 2.879367160499536702e-03 9.853794237092664433e-04 3.207288651461422086e-05 6.953737119040551357e-10 -4.682826663623099171e-07 -5.659196497270585407e-09
2.203743435534688544e-01 1.846089040391024616e-02 1.560259512393230531e-03 3.679960929017865156e-04 2.726283478202256375e-07 4.513323196288926160e-05 5.855297011700157948e-08
2.277980327015264039e-01 2.172621231243349743e-02 1.755828962525732805e-03 5.073033140872135584e-04 4.760630008739097454e-07 7.235406934260567833e-05 5.100324443328256022e-08
1.891489999489245344e-01 5.828464205881815283e-03 9.979494161082122679e-04 4.650324962117999370e-05 -1.606778684857922985e-09 -1.803387240128476949e-06 -9.888263234488701849e-09
2.191991822900819786e-01 1.788055653723577901e-02 1.506379553872023514e-03 3.274305628820901415e-04 2.217154521558830953e-07 3.774436302330112705e-05 6.101092152674653039e-08
1.871639567150087946e-01 5.728664319097186673e-03 9.148779565092291649e-04 9.968095511366797273e-05 2.968390761523186921e-08 7.357846355801070192e-06 -5.001487679527939468e-09
2.355509784242710292e-01 4.189842571846826068e-05 1.025174919325793667e-02 1.570257185745934522e-05 4.338774555859740121e-09 -9.327922342993227104e-08 -4.568118637035238977e-09
2.737466677833693129e-01 1.869202226563402777e-02 1.486300279473899352e-02 2.214300683954549456e-03 1.255055146481763653e-05 2.914599851400583312e-04 1.962462417975769029e-06
2.364320259234743982e-01 6.802416954329411000e-04 1.023499010793198390e-02 1.063994774514291167e-05 1.501828430193782578e-09 2.658374712246512310e-07 3.173781424819374994e-09
2.347959218539086290e-01 8.886250097170894484e-05 1.017734925598415968e-02 1.584872347626748920e-05 8.723162101240204447e-10 -1.490070519415978547e-07 -6.305094999861896955e-09
2.360586834116933375e-01 6.782052371804072341e-04 1.017172219708044681e-02 1.257452814888526599e-05 1.271912177765609594e-10 2.633711995768811758e-07 4.495324240921467632e-09
1.936182367119534398e-01 6.380654092123350758e-04 3.351527840040207512e-03 3.906861483041587413e-05 1.413577222153001431e-08 9.868639154108822339e-07 2.009948913686941300e-10
2.329508863740754054e-01 2.302873276952826977e-03 9.802622249965682252e-03 3.090759385262068014e-04 5.370131725813785676e-07 1.481097251864040751e-05 -3.229647334353440361e-08
2.338604301790471185e-01 2.521122533034444481e-03 9.813578414676454517e-03 3.482744322135872196e-04 6.431417068457348908e-07 1.747055117032365613e-05 -3.055008565922269716e-08
2.382686623007387872e-01 4.953858973944584273e-04 1.056682078765232465e-02 1.825797007769899458e-05 -7.571761363145057093e-09 -7.385991405135294077e-08 -2.642324919764527765e-09
2.657798041121545163e-01 1.501421617616004005e-02 1.392991964698740703e-02 1.796591516503829667e-03 8.956696366515458398e-06 2.179942514955000984e-04 7.458218915369973104e-07
2.365977541514648619e-01 8.734589480894310986e-04 1.013561537683966944e-02 5.233368561145165709e-06 7.304707248827311060e-10 2.327267647447508280e-08 -9.587352228012340609e-10
2.354386142160984075e-01 1.160979490799827455e-04 1.022721592215359090e-02 1.705639054541643505e-05 -6.226859366602137700e-10 -1.833749371976896241e-07 7.096495559802341181e-09
2.644874582830470389e-01 1.427982512398329011e-02 1.375404293205432019e-02 1.739079724555499511e-03 8.503607219693114593e-06 2.077526219209432240e-04 -1.743206721950240332e-07
2.497579631539172951e-01 7.500095194471020910e-03 1.098036275633181014e-02 3.581751287156511665e-04 7.100038017364629627e-07 3.001529237747180178e-05 -2.105123460755822690e-08
2.446741155517540567e-01 5.605228236144701309e-03 1.052092184108050117e-02 2.526412091881989988e-04 4.089973248022133671e-07 1.877528247025433243e-05 4.874497837085328903e-08
2.708267706750063231e-01 1.739503942368337414e-02 1.457627902232744993e-02 2.094510631885810117e-03 1.147624406274083733e-05 2.699699958852292661e-04 1.493624560035720360e-06
2.376756336802003933e-01 1.143601639771465572e-03 1.040239485067937300e-02 4.409394780071405846e-05 -4.367211016358139918e-09 6.392244827126288646e-07 2.954205905909158899e-08
2.646504377002035779e-01 1.416744014400293794e-02 1.384828556977598865e-02 1.724839135459040182e-03 8.385618097078882189e-06 2.020664180381655120e-04 -8.626269722032858064e-07
2.424758719386876371e-01 3.493838835554181378e-03 1.059700749332983562e-02 1.176969055872342221e-04 1.265621541940464286e-07 5.761853952585421406e-06 -3.548831697469723163e-08
2.701023798062480719e-01 1.684388087619951083e-02 1.470315930633097311e-02 2.125647678187822347e-03 1.188245216943874166e-05 2.758324555745776804e-04 -1.533858359917761126e-07
2.361707904466438246e-01 1.133692530514705029e-03 9.947163947601948483e-03 2.394927758430998989e-05 8.934972269747370966e-09 8.051968161449654815e-07 7.536965828745253155e-09
2.727672920974313908e-01 1.869536767565446039e-02 1.471151006574995639e-02 2.274000253382224904e-03 1.310602726928797436e-05 3.071033235341670445e-04 1.106864277605959168e-06
2.359736426506677809e-01 3.371628593340085148e-05 1.037341078898693959e-02 1.306054057373245845e-05 4.691836674801335595e-09 -7.556056544094377392e-08 1.047348756070130014e-09
2.375108892292161489e-01 1.419255087146169530e-03 1.037943952459663075e-02 5.851728943905176212e-05 7.523033621070531586e-09 1.264099097843317758e-06 4.498030219474284715e-08
2.559603497276888295e-01 1.114166066939089456e-02 1.153622362296174986e-02 6.676166871929655085e-04 1.804267590177600140e-06 7.010964563381892525e-05 4.211798844786992602e-07
2.385843188995488695e-01 1.448829073103809683e-03 1.025962236488117685e-02 1.151551209147873459e-05 -3.840056207041761776e-09 -4.308251237536946721e-07 9.595825908935830198e-10
2.655936655435607863e-01 1.505742655715999224e-02 1.391931721296922608e-02 1.837406403780282409e-03 9.289186493382475991e-06 2.251826590903492869e-04 2.351629535973166902e-07
2.377354993921980131e-01 1.087343181064953125e-03 1.031394618132286563e-02 8.926052991361423257e-06 5.009280620347328761e-10 -4.961833991415450503e-08 -2.661601746718056416e-09
2.357546404139886365e-01 2.605102244851411480e-03 9.709760043891299888e-03 3.284235973505920014e-04 5.481130425089148378e-07 1.588573375238092495e-05 2.086503257460669839e-07
2.336339176798317707e-01 2.512462085481862936e-03 9.781690592724875261e-03 3.463142460264547612e-04 6.364302211290726767e-07 1.733758095303096548e-05 -3.515894898783610825e-08
2.222476543092999912e-01 3.198091730005339292e-03 2.485878489302360416e-04 2.163742311588126035e-04 -4.445540317437293167e-08 -1.044064081712809910e-05 -2.327989690509239771e-08
2.210812407179978956e-01 2.762439111174779232e-03 2.578630927224218028e-04 2.140624178332533191e-04 -5.013392265733734362e-08 -1.122682303937711692e-05 -3.993588933958347141e-09
2.919138202230653345e-01 3.883675749833612884e-02 7.598734342641808156e-04 1.822519092097274181e-04 -5.423859591868221366e-08 -3.117883435584465338e-05 -4.072065106858047494e-08
2.846062078814733942e-01 3.517512887965693752e-02 7.168524337127732968e-04 1.709668360715833738e-04 -5.756030437907795369e-08 -3.137008100747817717e-05 1.640547754212919732e-08
2.310350081696233571e-01 1.245675103087203091e-02 3.346381652746031974e-04 1.158948564363645746e-04 -2.195488280445317919e-08 -1.261886793156260715e-05 6.236940887216641677e-09
2.352461242485798798e-01 1.316097467987432761e-02 3.871365858838093509e-04 1.336002355235662751e-04 -2.995375417393066430e-08 -1.521300267350376240e-05 5.094266143033837715e-09
3.026250820246677020e-01 4.488654934482212006e-02 8.156512419127966802e-04 1.791900116116895529e-04 -6.364993134341316870e-08 -3.619103535171997761e-05 -2.533053273087197385e-08
2.212166578760650926e-01 3.216735239432035043e-03 2.775024930715683843e-04 2.601131602956272709e-04 -3.316985345663797122e-08 -4.321762197280286429e-06 6.151029012437882687e-08
2.949708761032741600e-01 4.070020956471150086e-02 8.010004144787233240e-04 1.773155594480579943e-04 -6.676681890882010288e-08 -3.575356074714698668e-05 2.779327676662883915e-09
2.332967090225029072e-01 1.825258908518995540e-02 1.541699153165620485e-03 1.100823226432053460e-04 -4.335511696981138281e-08 -1.477579613294839653e-05 1.330210254576518370e-08
2.209534502719441851e-01 2.708583767089550384e-03 2.517223101972509286e-04 2.151320950274388389e-04 -4.989870812398636198e-08 -1.116368960974273804e-05 -4.055070287211244924e-09
2.589037083952482332e-01 1.741564326619996286e-02 9.386530776721743697e-04 2.879356580534384686e-04 -1.496823465079716549e-07 -3.799836716615491975e-05 -1.610876294009386553e-09
2.242345702172453548e-01 4.198503264690789383e-03 3.005333904015866728e-04 2.139874988152169516e-04 -4.965343852065051484e-08 -1.240217406422748803e-05 -2.189407483117041018e-08
2.198993465627311628e-01 2.765501771398766115e-03 2.546091998622599219e-04 2.325323017656482521e-04 -4.278289899386726730e-08 -7.880398049910678989e-06 3.702574486733889583e-08
2.961780892219141315e-01 4.132849500220972527e-02 7.728002060714962663e-04 1.762600681674468897e-04 -6.014624556546732726e-08 -3.403608241766504979e-05 -2.478441263555401402e-08
2.210748565107574226e-01 2.618728366192632495e-03 2.295285834000596005e-04 2.147261804760921503e-04 -4.757780567925236822e-08 -1.094089890138846442e-05 -2.964624017970144442e-09
2.913208032802465097e-01 3.866128486187631053e-02 7.275060936039830142e-04 1.701968723257102909e-04 -5.637380989238685103e-08 -3.216383753945795023e-05 -2.021541640721443083e-08
3.075741129316157396e-01 3.054929533239104239e-02 1.714553539892258588e-02 2.633150094782986048e-03 7.697595201081388494e-06 1.030373631358315681e-04 1.593019824475834219e-05
3.105519484920852280e-01 3.240073371204452157e-02 1.765934633682184757e-02 2.888143066222729691e-03 1.046751868873806149e-05 1.553806763563422367e-04 1.777255240278766168e-05
3.095605234076341250e-01 3.174826867317680212e-02 1.728545936631971022e-02 2.476529924649324439e-03 5.113715805338958343e-06 3.968264554798684200e-05 -1.537529495320634040e-05
2.199128592828080986e-01 8.577280082761550711e-03 4.176825346489666281e-03 2.249547480617306440e-04 -2.179701780639671567e-07 -2.082759195140775784e-05 6.078869214121497418e-09
2.901003684643116420e-01 2.295532225576160656e-02 1.432192192464155911e-02 1.183177347883155109e-03 -4.863120894813530948e-06 -1.788853891733045774e-04 2.683840786475421775e-07
2.901003684643116420e-01 2.295532225576160656e-02 1.432192192464184707e-02 1.183177347883126920e-03 -4.863120894813412364e-06 -1.788853891733005116e-04 2.683840786474460392e-07
2.890838849339639749e-01 2.279468309229783565e-02 1.418936535951791610e-02 1.171067191254533506e-03 -4.765312353596660336e-06 -1.764000837212334558e-04 2.826901723332572655e-07
3.014508375871841617e-01 2.729602684618280192e-02 1.647140047703656018e-02 2.489335320004939719e-03 6.943861776605376948e-06 1.014595828244267738e-04 -1.434812809838649432e-05
3.130127525881473138e-01 3.437482769810040750e-02 1.747367025417014344e-02 2.573046962685295470e-03 5.918179094044791223e-06 5.011159516174259749e-05 1.620616595604200660e-05
3.153376742073928929e-01 3.552866777268445797e-02 1.781034654303757445e-02 2.672218066499122257e-03 6.570295205089970868e-06 5.815928998895134624e-05 -1.722445452723227159e-05
3.194151172084943591e-01 3.820278983318242672e-02 1.779202297608930769e-02 2.600886330218908377e-03 4.944061524123386017e-06 1.288831810716660085e-05 1.698790063985414369e-05
3.202571879625467632e-01 3.908646950084778554e-02 1.835911033722139110e-02 3.094605607464739807e-03 1.172930734794909549e-05 1.590645177134557037e-04 2.016207716790234200e-05
2.799334191941884598e-01 2.130200660773529098e-02 1.179054436010390852e-02 1.000896186763368259e-03 -3.438317064178715730e-06 -1.460039764005285087e-04 1.575223430383058204e-08
2.913948375476929642e-01 2.147228347988011654e-02 1.524009832431848406e-02 1.923581884234640315e-03 2.208513541860565994e-06 1.494093280738804323e-05 1.017816321853368115e-05
2.523976945365534741e-01 3.053631063633385420e-02 1.546121164028029134e-03 1.257049030438915106e-04 -5.476972147417616473e-08 -2.172984679638048107e-05 8.451129465829420979e-09
2.512252080007230104e-01 3.014299029469603985e-02 1.622265742645958957e-03 1.334174706642655777e-04 -6.165885887403955797e-08 -2.303666363875631195e-05 -7.130217299169424411e-09
2.539704172773046276e-01 3.105164805831428163e-02 1.354745530476165680e-03 1.000382027890490554e-04 -3.499098176914608005e-08 -1.710135355328288681e-05 1.148607723597267123e-08
2.523976945365534741e-01 3.053631063633385420e-02 1.546121164028029134e-03 1.257049030438915106e-04 -5.476972147417616473e-08 -2.172984679638048107e-05 8.451129465829420979e-09
2.512252080007230104e-01 3.014299029469603985e-02 1.622265742645958957e-03 1.334174706642655777e-04 -6.165885887403955797e-08 -2.303666363875631195e-05 -7.130217299169424411e-09
1.982607004850078514e-01 3.608221677484721966e-03 1.799566991370475698e-07 4.566853214675978045e-08 -3.598732457821929359e-16 2.287354948920963045e-09 -4.124417677924113807e-15
1.952695343292380481e-01 2.542570160278393495e-03 1.716496206929745449e-07 6.758686493443876972e-09 1.181351136758549881e-16 1.012401500402277708e-10 -1.975815460972782697e-16
2.062543307328480180e-01 7.406895395480379493e-03 9.957505338040731110e-08 8.977586912014025871e-09 2.545641236696140738e-16 4.673013961498008411e-10 8.512547614119354026e-17
1.678820412381058225e-01 7.364805792868842574e-11 2.068845603908335830e-07 7.745980948229074196e-09 -3.100835140960079616e-16 -6.647480530937297625e-14 3.110084118833839043e-28
1.879093529315252198e-01 1.711148045092659433e-05 4.031185858203644287e-06 1.262434025430956651e-07 -6.093561594323341530e-14 -4.770805869022306427e-10 6.631410952833422275e-14
1.872909369448530481e-01 1.062625838470650513e-05 2.158200288490348354e-06 2.834904164450644422e-08 -8.928042164294256856e-16 -8.395006257662839522e-11 6.955117349872376292e-15
1.864627128719821281e-01 8.232228842413897514e-06 5.827734946950841541e-06 3.887535978666010052e-07 4.166279400540071141e-13 -6.250852480273695518e-10 4.108682554018002942e-13
2.003244360103407784e-01 4.467202312359132461e-03 3.169253075625728561e-07 5.837415215441566728e-08 5.620453599226771351e-15 3.478148567090188366e-09 5.608106664130841868e-15
1.980909562183216788e-01 3.657721807210631733e-03 2.609938389863220186e-07 3.014415272485478804e-08 -1.092565483540383236e-15 6.821447360216658537e-10 -2.440328919785732118e-15
1.948996430387182344e-01 1.968421706356235368e-03 1.486464137779056213e-08 1.777685877095901053e-10 2.878091408581700395e-19 -7.803899501095431501e-12 -2.592775794204586794e-20
2.026274911843461424e-01 5.204798899453364283e-03 7.627006383392757700e-07 9.034316595085543662e-08 2.096730659285920913e-14 6.010392778050446491e-09 -1.107994631957259081e-14
1.848876136747559795e-01 3.278776613947443334e-07 1.531081268863672979e-06 1.017845373729546509e-07 1.318424031310511802e-14 -4.522369230418402378e-12 3.795651040365604872e-14
1.981864655752627047e-01 3.422304970893025409e-03 1.490096475949559410e-07 4.232208501817189398e-10 -2.320787443114672307e-18 -2.429345287689776366e-11 2.430989133842095869e-18
3.471042480533245156e-01 7.879332372377977067e-02 6.338455813124481593e-03 1.527305999853308073e-03 4.655418630102423607e-06 3.415893557889371017e-04 -9.534347033750716372e-07
3.459852832510788567e-01 7.768628222396666005e-02 7.309126124780855778e-03 2.154872717470396846e-03 8.537489550093337520e-06 5.505096443416607806e-04 -4.971156769221956651e-07
2.296501035411189495e-01 1.128473173180350939e-02 3.816861336827364563e-03 1.172407064532258157e-04 5.169103309143881804e-08 1.241036273082182431e-05 5.898287493256812001e-08
2.329269210317415628e-01 1.288385769706030040e-02 3.806245335762604119e-03 1.192923012057444781e-04 7.166836228052649245e-08 1.307518200038451115e-05 3.640269139565418102e-08
2.156556016971930556e-01 1.478279811912418945e-02 1.527004370198349397e-03 1.207306351396127424e-04 4.785610873715438729e-08 1.040046573957069449e-05 -1.992355310285395683e-08
2.716906249242559412e-01 3.248408651444309458e-02 4.636378053038121665e-03 5.604408509141228486e-04 9.033825694599398252e-07 9.041630565338265937e-05 -6.823865497101662266e-09
2.708945683977039831e-01 3.244407057461453497e-02 4.716078375480416141e-03 6.254765987870897085e-04 1.074081790212314765e-06 1.008130403730972657e-04 -1.925190684541998055e-08
2.703618027497712850e-01 3.223919167125856300e-02 4.677638929108872759e-03 5.899654834469307291e-04 9.794122147005169378e-07 9.382697567239639655e-05 -3.566399737574030481e-08
2.708945683977039831e-01 3.244407057461453497e-02 4.716078375480692829e-03 6.254765987870302942e-04 1.074081790212194275e-06 1.008130403730892019e-04 -1.925190684536704099e-08
3.405962142815325278e-01 7.383927731146321116e-02 6.618478838809243106e-03 1.650675223226419439e-03 5.407468592146517107e-06 3.832616135748004261e-04 -7.258324682097882906e-07
2.213002722312131798e-01 7.947404493159764688e-03 3.453274817634147120e-03 3.210597604432549325e-05 4.811360844354856363e-09 2.859971520348174336e-06 9.546501245195523298e-09
2.208986090915148193e-01 7.452169492307464567e-03 3.647681985725310678e-03 4.049072802160096481e-05 4.077300397989783707e-09 3.444185584135221399e-06 1.501749659644535432e-08
2.250266259290232829e-01 9.449756410659083256e-03 3.683213735894385211e-03 7.604590818422165481e-05 2.435207051635718518e-08 7.389172594776644321e-06 3.204295320753359981e-08
2.327975978242557975e-01 1.258253194600757706e-02 3.854089199112714810e-03 1.191275687322830291e-04 6.876541486077534242e-08 1.308938760818892597e-05 4.227269171511607064e-08
2.220113670017960783e-01 8.084576116974991761e-03 3.590474966943026699e-03 5.257426856174212846e-05 8.846114970890087058e-09 4.687879543029722866e-06 2.105961202276379213e-08
3.418618044546450907e-01 7.488439611464117740e-02 6.874044386290792917e-03 1.860507947215681284e-03 6.624337109264753785e-06 4.518987072457983324e-04 -6.228103069047852431e-07
2.461167243675313754e-01 1.485868906974784423e-02 5.187254636851768019e-03 3.590314652641837865e-04 -2.687697054767298156e-07 -4.853231758260258258e-06 4.096721896331904681e-07
2.233466871910534113e-01 8.259334168865064413e-03 3.773412967209045787e-03 6.918170553976993201e-05 9.680376346617514234e-09 5.983440858942535010e-06 3.399572599281883564e-08
2.385456686076123101e-01 1.508673667233911136e-02 4.200296687172691210e-03 2.441440520724051568e-04 1.724939010367938878e-07 2.908786759917342035e-05 1.771180099358616806e-07
2.273376770360442389e-01 1.018620101914050405e-02 3.778379743517761361e-03 1.122936440522046789e-04 3.083971875104229627e-08 1.072257053099604646e-05 6.632590341554496713e-08
3.439302998174354475e-01 7.622000303597746551e-02 6.851660797511147268e-03 1.808355246152403570e-03 6.320484107711235709e-06 4.338784730084025831e-04 -7.545841188668368227e-07
2.336103022181840183e-01 1.306919765119908192e-02 3.854193273303133278e-03 1.341221188217799174e-04 8.512317363679214964e-08 1.490669917228567107e-05 4.531017878518318104e-08
2.663964653198359067e-01 2.914325884961833230e-02 8.192212036332645649e-07 3.350681681958875066e-07 1.001084172311858393e-13 5.635491052358392211e-08 -1.442083164827393781e-13
2.537165274932913217e-01 2.284169623343314595e-02 2.889335091036105564e-07 1.386676231889230031e-08 -6.468028365697489519e-16 -1.984658014816248028e-09 -5.933449648349588473e-16
2.276654885795150185e-01 1.083405024098921254e-02 3.016077641674212509e-08 1.074901107776884215e-08 -2.118310354103403904e-17 5.526003634377378987e-10 1.923787276044272269e-16
2.730712636163509233e-01 3.365260998391934183e-02 1.355734852870604225e-05 9.452870181519403028e-06 1.062670173781026056e-10 1.721246532445540128e-06 -1.260604497870638581e-11
2.726927126325949247e-01 3.310357120133505804e-02 1.425383496040548101e-06 5.225874051791322121e-06 1.415036709623888039e-11 9.488561450400868729e-07 1.787200716684380073e-12
2.739934199343174170e-01 3.415689522970361686e-02 3.254700392662534865e-06 4.526635898296965923e-06 1.728042391090341644e-11 8.127540678978427526e-07 -1.808117344013950239e-12
2.739934199343177501e-01 3.415689522970345726e-02 3.254700392663275595e-06 4.526635898291098526e-06 1.728042391086252270e-11 8.127540678964573243e-07 -1.808117344099187001e-12
2.502451735281815415e-01 2.129540595924470092e-02 2.758525393801463458e-07 4.013461277390680335e-08 2.384841573369277019e-15 5.853208079592410913e-09 -3.485101636853021913e-15
2.719179449748652111e-01 3.227709395006946036e-02 1.219746463598766989e-06 1.509269408460337192e-07 6.122940430982481900e-14 2.583012453773752339e-08 -2.108067035537404331e-14
2.269603826135989655e-01 1.013335408133464802e-02 3.767554056381013788e-03 9.314129627235950501e-05 3.474790326769198474e-08 9.364853858951417923e-06 4.285878385920301786e-08
2.509170312316306162e-01 2.171447818759441456e-02 6.484427809832636130e-08 2.304474931864162357e-08 7.515104538362024551e-16 4.018419172959139059e-10 -4.783371111953413325e-16
2.425438111369259686e-01 1.792058653767763729e-02 1.119893823630598697e-09 7.663659661174477065e-09 1.297883090246654820e-18 -9.731874643014583858e-10 2.241381859664202246e-17
2.495134374411339395e-01 2.130089037531466764e-02 2.808304275282564596e-07 1.082187644740930908e-07 5.017395200985370019e-15 6.333094714302225704e-09 1.818640484390487387e-14
2.472753608661115987e-01 2.013813636155678197e-02 8.494170677872220120e-09 8.943573437453962458e-09 -7.069474037501330007e-18 1.185137368241585216e-09 7.763074466117657962e-17
2.299659976629652713e-01 1.239238908748324999e-02 2.929275877795659243e-07 7.545402425250609636e-08 1.121065304811211651e-14 7.193357086528253617e-09 3.975039637540095104e-16
3.457691512521596233e-01 7.746178065425346482e-02 2.773850313995363978e-06 9.809421938436751585e-07 1.509320711609126765e-12 2.561422791076395419e-07 -5.832786519378482417e-13
2.654620785837056296e-01 3.022582709595889733e-02 2.006544100094401044e-06 5.347580246405257802e-06 1.678689709396340374e-11 8.579080336929460031e-07 5.004618755911167781e-12
